﻿"5 спринт"
"1 спринт"
"2 спринт"
"3 спринт"
"4 спринт"
"6 спринт"
"5 спринт"
"Работаем над презентацией и докладом!"
"Цель проекта: Определить, каких работ и в каком формате надо организовать загрузку в портфолио студента, чтобы сформировать полноценный цифровой след"
"ИНТЕРВЬЮ  С АЛЕКСАНДРОМ МАЛИЦКИМ"
"ИНТЕРВЬЮ С ЭКСПЕРТОМ"
"Интервью с экспертом"

"Цель проекта: Определить, каких работ и в каком формате надо организовать загрузку в портфолио студента, чтобы сформировать полноценный цифровой след"
"Первоначальная цель проекта:   Определить, каких работ и в каком формате надо организовать загрузку в портфолио студента, чтобы сформировать полноценный цифровой след."
"Состав команды: Тодаренко Владимир Кувалёва Полина Тастемиров Рустам Булгакова Полина Еникеев Максим"
"Откорректированные задачи:   Провести дополнительные интервью с пользователями, чтобы узнать о их требованиях, потребностях.   С помощью мозгового штурма придумать как можно больше идей для достижения цели и устроить генерацию идей.   Развить выбранную идею.   Работать над докладом и презентацией."
"Интервью с экспертом"
"Задачи: С помощью дополнительной литературы расширить знания о цифровом следе, чтобы иметь представление, с чем работает команда.   Провести не менее трёх интервью с пользователями, чтобы узнать о их требованиях, потребностях.   Провести не менее одного интервью с экспертом, чтобы более хорошо погрузиться в тему и понимать ключевую потребность.   С помощью мозгового штурма придумать как можно больше идей для достижения цели и устроить генерацию идей."
"Даты интервью с пользователями: Безденежных Павел 22.11 Рыбакова Екатерина 26.11 Бугаенко Иван 30.11 Малицкий Александр 2.12"
"Это только один из возможных вариантов пути пользователя"
"Функция отслеживания достижений в учебе"
"Мы провели интервью с Финк А.А. В ходе беседы мы выяснили, что понятие “цифровой след” можно рассматривать по-разному. Если рассматривать как нечто глобальное, то цифровой след- это любое действие, оставленное пользователем в сети. Студенту нужно собирать свое портфолио. Таким образом, он сможет сохранять все свои работы, научные проекты и тому подобное. В дальнейшем их все можно предоставить работодателю. Это дает студенту определенные преимущества. Преподаватель не имеет полный доступ к портфолио студента.  Он может просматривать те работы, которые студент выполняет по  дисциплине данного преподавателя. Анне Альбертовне была бы интересна возможность просматривать портфолио студентов. По ее мнению, цифровой след нужен студентам. Так, они могут сохранять свои работы. У студентов будет возможность предоставить их кому-либо при необходимости или с их помощью отслеживать прогресс. На вопрос о том, на что обращают внимание работодатели в портфолио студента , мы получили такое мнение, что не все работодатели при приеме на работу ориентируются на портфолио. Работодатели, для кого портфолио- важный критерий, обращают внимание на серьезные работы. Кому-то важно, чтобы сотрудники правильно ставили речь, кому-то - нет. Скажем, вы не умеете четко формулировать мысли и не сильны в теории, но при этом создаете перспективный продукт и этим привлекаете работодателя. Нашему эксперту было бы удобнее просматривать портфолио в электронном формате. Это связано с тем, что не нужно таскаться с бумагами, доступ к работам доступен с ноутбука в любое время и это очень удобно. Также она считает, что хранить портфолио необходимо в сети. В личном кабинете сайта ОмГТУ, например."
"'-Здравствуйте. -Здравствуйте. -Мы предлагаем сегодня обсудить прототип, давайте мы его вам покажем. -Да, давайте. Выглядит хорошо, но хотелось бы уточнить, что у вас находится в левом верхнем углу. -Это место для логотипа. -Я думаю, что это не совсем уместно. Вы являетесь разработчиками платформы, информация о разработчиках может находиться в подвале сайта вместе со всеми необходимыми контактами, чтобы не сбивать пользователей с толку. -Мы хотим это представить не как логотип разработчиков, а как логотип сайта. -Это ваш выбор, но возможно это пустая трата времени. Если это цифровой след для сотрудников кафедры, то логично бы было поставить логотип кафедры. -Нет, мы решили делать продукт более глобальным, чтобы им могли пользоваться не только в нашем вузе, но и в России в целом. -Хорошо, поняла. -Мы хотим, чтобы при регистрации пользователь выбирал, кем он является (студентом, преподавателем, работодателем). Студент выбирает свой вуз, и ссылка на его портфолио автоматически прикрепляется к личному кабинету в вузе. -Идея интересная, я даже задумалась, как вы это будете реализовывать.  Каждый вуз должен запрашивать доступ... это достаточно сложно. -Но необязательно реализовывать все сразу. Сначала можно будет сделать более простую версию сайта. -Я понимаю, что вы сейчас занимаетесь MVP. Однако, вы можете получить ссылку с других сайтов, чтобы у вас ее разместить и как-то это использовать, но вряд ли возможно менять что-то на других сайтах. У меня рядом сидит фронтенд-разработчик, давайте поинтересуемся у него. -В целом это возможно, но надо будет связываться со всеми специалистами, которые работают с каждым сайтом других вузов. Тогда при регистрации должен быть список доступных для выбора вузов, которые уже есть у вас в базе данных. И дальше уже ваша система должна отслеживать, что это за вуз и по ID отправлять дальнейшие запросы. Но стоит задумать, нужно ли это. -Спасибо, мы это учтем. -В любом случае, если вы хотите работать с разными вузами, то ваш продукт должен быть особенным, чтобы вузы были заинтересованы в этом. На данный момент почти у каждого вуза есть своя система наподобие портфолио. Что заставит вузы отказаться от своих систем и перейти на работу с вашим сайтом? К тому же, есть подобные проекты, как GitHub и HeadHunter. -Хорошо, а если вы считаете, что проекты похожи, то может есть что-то что вам не нравится, что бы вы хотели доработать в этих сайтах, например, в GitHub? -Это очень многофункциональный сайт, я даже не знаю что еще можно добавить, чтобы он стал еще лучше. -Это да, но мы хотим сделать сайт, где и студенты могли бы хранить свое портфолио, и работодатели могли бы выкладывать вакансии и отбирать студентов, и учителя отслеживать успеваемость.  Объединить все эти возможности на одном сайте. -Я согласна, задумка очень хорошая. Вам нужно правильно раскрыть вашу идею. Подумайте над подобными проектами, оцените их плюсы и минусы, объедините и усовершенствуйте лучшие идеи, специализируйте их под студентов. -И последний вопрос. Правильно ли мы поставили задачу: определить, каких работ и в каком формате надо организовать загрузку в портфолио студента, чтобы сформировать полноценный цифровой след. -Я думаю, что да. Важно определить, что понимается под цифровым следом. В школе вы получали много грамот, но многие из них никто не смотрел. Может вы должны как-то анализировать в системе все достижения с помощью машинного обучения. Определите, что для вас значит цифровой след. Мне кажется формат объединения файлов и кода и будет считаться цифровым следом. - Хорошо, спасибо вам большое за интервью, мы будем дальше работать. - До свидания. -До свидания. '"
"Откорректированной цели нет.  Остается прежняя"
"ЗАДАЧА проекта: Определить, каких работ и в каком формате надо организовать загрузку в портфолио студента, чтобы сформировать полноценный цифровой след"
"  -Здравствуйте! -Здравствуйте! Как у Вас дела? -Отлично -Как учеба? -Отлично... Ну местами хорошо, местами плохо.. -Ну понятно.. Итак, давайте перейдем к теме проекта... Как Вы думаете, что такое цифровой след? -Ну я думаю, это какие-то действия в сети интернет, которые записываются в какую-нибудь базу данных, и по которым можно сделать какие-нибудь прогнозы о действиях пользователя, по типу файлы cookies, по типу наших действий внутри соц. сетей, которые анализируются и отправляются на сервер. -Как Вы считаете, цифровой след важен для студента? -Чтобы ответить на этот вопрос, надо знать, какой именно цифровой след мы собираем, какие данные.. Вот например, у студента можно анализировать его баллы: взять все его баллы по какому-то конкретному предмету и по формуле посчитать коэффициент его знаний. Затем сравнить с другими студентами и это поможет студенту показать, какие предметы у него сейчас отстают, если это является цифровым следом. -Что-то сложно.. Смотрите, в каком направлении мы идем: мы должны определить, каких работ и в каком формате надо осуществить загрузку, чтобы сформировать полноценный, настоящий цифровой след. -То есть вы хотите сформировать какую-то базу работ студента, по которым можно было бы определить любому преподавателю, или даже будущему работадателю компетенции студента. Правильно понял? -Да, правильно -В таком случае, конечно будет полезен цифровой след.. Например, мы программируем в процессе обучения и эти работы прикрепляем куда-то и после работадателю показываем, чего мы достигли и добились за годы обучения. -Да, именно это мы и хотим осуществить в проекте. Один из вариантов- это сделать портфолио студента. Причем мы хотим его сделать не на сайте ОмГТУ, а отдельным сайтом, чтобы пользователи были не только студенты нашего ВУЗа... Ссылку можно прикрепить в личный кабинет, чтобы каждый учащийся мог быстро перейти в свое портфолио. Как Вы думаете, какие работы необходимо загружать в портфолио? -Естественно, туда не надо загружать абсолютно все работы. Туда надо загружать готовые проекты!  Например, ргр по программированию, или результаты олимпиады, возможно, само решение. Было бы здорово, если бы при входе на сайт, пользователь выбирал, кто он(студент/преподаватель/работодатель) и выбирал организацию, от которой он регистрируется. И любой человек может по поиску просто всех студентов найти и посмотреть вообще, чем он занимается! Для чего это полезно: работодатель будет видеть код, например, и сможет оценить, как ты пишешь! -Да, отличная идея! Мы уже думали об этом. Только мы хотели ограничить доступ просмотра чужих портфолио без разрешения на то пользователя. -Ага, понял. Неплохо... -Так же мы хотели структурировать портфолио для того, чтобы можно было загружать в него не только важные работы, как ты говоришь, но и такие, как дз, лабораторки, возможно даже лекции.(Это может быть полезным, например, на дистанте. Преподаватель, заходя в портфолио студента, может оценить его работу). Просто в таком случае это будет храниться в разных разделах или папках, возможно. Как Вы на это смотрите? -Да! И правда, в условиях дистанционного обучения, когда преподаватель не видит, как работают люди, это будет очень удобно! -Скажите, пожалуйста, а у Вас есть портфолио? -Нет.. -А хотели бы его сделать? -Ну как Вам сказать.. Если бы мне было что положить в него, то конечно, а так.. Но и если бы было, то я бы его загружал куда-нибудь на GitHub. Портфолио должно создаваться с серьезными достижениями. А если их нет, то о каком портфолио идет речь... -Хорошо.. А в каком формате Вы бы хотели иметь портфолио? -Прежде всего, конечно, в электронном.. А, да, еще обязательно сделайте авторизацию через гугл или вк, чтобы это все хранилось без запоминания паролей. Вот это обязательно.. Это очень удобно! Еще бы я хотел иметь поиск, с помощью которого можно было бы найти других сдудентов. Вот, тоже очень важно, чтобы иметь возможность что-то оценить из его работ... Еще при загрузке чтобы я мог указать тип работы, название проекта.. Еще чтобы все было не в куче, а отсортированно. Причем не просто по алфавиту, а по областям. -Отлично! Будем иметь ввиду! Как Вы относитесь к тому, чтобы при написании кода, студент включал запись и выкладывал ее? -Не понимаю, зачем это нужно! Сомневаюсь, что кто-то будет смотреть процесс написания кода. Если нужно как-то прокомментировать каждый шаг- это можно текстом прописать в коде. Преподаватели, у которых нагрузка и так большая, точно не захотят сидеть и смотреть, как какой-то студент два часа пишет код. Я считаю, что это бесполезно. К тому же память будет заниммать на сервере. Еще я был бы рад, если там была бы система рейтингов! Это мотивировало бы студентов, ну меня точно! -Да, хорошо! Мы подумаем над этим обязательно! Спасибо большое за интервью! -Да не за что!"
"Разделение доступа: Преподаватели/работодатели"
"              ПРОТОТИП                  "
"Окна подсказки при первом заходе на страницу"
"Площадка- сайт Омгту"
"(Владимир и Полина)-Здравствуйте. (Экперт) -здравствуйте. Что вы сегодня покажете? Сегодня мы хотели вам рассказать, что мы придумали на счёт нашего проекта. (Владимир)-Цифровой след. Мы создаём платформу, которая поможет отслеживать цифровой след студентов. Это будет сайт, на котором при регистрации будет деление пользователей на1. Студенты, Преподаватели или Работодатели.  Студенты могут размещать свои ключевые работы, которые могут показать их навыки и умения, различные сертификаты и дипломы, свои научные исследования, могут размещать информацию о себе, о своём учебном заведении, о уже приобретённом образовании и указывать стаж работы, если он имеется. Также студенты могут выбирать уровень доступа других пользователей к своим работам и оставлять заявки на предложения работодателей. Преподаватели могут получать доступ к работам студентов своих вузов, оставлять комментарии к ним, отслеживать прогресс студентов как по учебной, так и вне учебной деятельности, также и после завершения обучения, они могут узнать куда устроился студент и его профессиональные достижения. Работодатели могут размещать различные вакансии и стажировки, к которым студенты могут прикреплять свои портфолио и оставлять заявки. Работодатели могут изучить эти портфолио и заявки и выбрать наиболее подходящих кандидатов. Таким образом, мы предоставим возможность организовать портфолио студентов. В отличие от вузовских платформ, студенты смогут более свободно вести портфолио ( выкладывать не только вузовские работы, самостоятельно структурировать данные и выбирать доступ к ним других пользователей), студенты смогут продолжать вести портфолио после вуза. В отличие от гита, будет более упрощенный интерфейс и платформа будет специализироваться под студентов. Вузы смогут сотрудничать с различными компаниями, чтобы обеспечить трудоустройство студентов. Все вакансии будут собраны в одном месте. У студентов будет доступ к вакансиям и предложениям, так как зачастую они о них могут даже не знать. А также мы сузили круг распространения нашего проекта не на всю Страну, а ограничимся городом Омск. (Эксперт) - звучит не плохо, у вас есть дизайн? (Владимир) - у нас есть проработанный прототип, но мы ещё не загрузили его в общий доступ. Возникли проблемы. (Эксперт) - У вас очень хорошая представление, вы и разные стороны описали, сравнения. Достойно (Владимир) - можете дать какие-либо советы? (Экперт) - в данный момент у вас всё хорошо, как только я увижу готовый прототип, смогу дать советы. (Полина) - можно ещё вопрос? на прошлом интервью вы говорили, что нам важно придумать какие-либо отличия от гита и т.д. Если мы скажем, что наш проект нацелен на студентов, у него будет лёгкий интервейс и с ним будет намного легче работать, чем с Гитом. Этого достаточно? (Эксперт) - то, как у вас это описано в представлении, звучит очень хорошо, написано: что, зачем и почему. Вопросы у комиссии могут возникнуть, это нормально, не переживайте, вы со своей стороны поработали и просто представляйте то, что вы наработали, обосновывая это. (Полина)- Нам надо делать акцент на трудоустройстве? Или мы только цифровой след затрагиваем? -эксперт-Да, вы можете сделать акцент на трудоустройстве, представив ваше приложение всестронним, которое не останавливается на одном элементе. У вас есть ещё вопросы? (Полина) -нет (Владимир) - нет, спасибо вам большое за интервью (Эксперт) - ага, ну всё тогда, ребята, давайте, дорабатывайте, осталось совсем немного, удачи вам, вы молодцы. (Полина) - спасибо большое, до свидания. (Владимир) - до свидания "
"Гайд к интервью"
"Бальная система"
"Разделение данных на блоки"
"Возможность загрузки файлов через сканирование"
"ГЕНЕРАЦИЯ ИДЕЙ"
"В качестве площадки будет выступать ОТДЕЛЬНЫЙ сайт, заходя на который студенты будут оставлять сведения о своих работах в  своем личном кабинете."
"ИНТЕРВЬЮ С МАКСИМОМ БУШУЕВЫМ"
"      Генерация идей"
"Личная оценка   (1-10) "
"  Здравствуйте! Скажите, Максим, как ваше настроение? -Здравствуйте, настроение хорошее! -Как успехи с учебой? -Ох... Сложно ответить.. В целой нормально.. Единственное, что мне не нравится- математики много. Хотел бы больше времени уделять программированию. -Да, математика- всегда непросто, а особенно, когда ее много.. Но я уверена, что всё получится у Вас! Вы говорите, хотели бы больше времени уделять программированию, почему? Нравится писать программы? -Да, конечно. Я планирую жизнь связать с программированием. Моя цель- стать востребованным программистом. -Отлично! Цель- это всегда хорошо... Спасибо за ответы, перейдем к теме нашего интервью, итак... Знаете, что такой цифровой след? -Я имею общие представления, но дать точное определение затрудняюсь.. Наверное, это какие-то действия в сети.. Цифровой след формируется ежедневно.. -Полностью согласна с Вами. Если же рассматривать под понятием цифровой след какие-то работы студента, его достижения, которые он бы загружал в портфолио, имело бы оно значимость? -Думаю, да. -Какую же? Зачем портфолио нужно студенту? -Прежде всего для того, чтобы показать его при приеме на работу. -Хорошо, я Вас поняла, спасибо. Итак, следующий вопрос.. Как Вы считаете, как можно замотивировать студента собирать портфолио уже сейчас? -Я думаю, что никак. Если человек( студент) хочет хранить свои достижения, он их будет хранить. В противном случае, ему нечего будет показать работодателю. И вообще, я думаю, что человек, который лишь ищет оправдания вместо того, чтобы что-то сделать- не идет к цели, или же у него ее нет. Кто стремится, того и заставлять не надо что-то делать, он сам будет участвовать, что-то делать, думать... -Я поняла, спасибо.. А на что, по вашему мнению, обращают внимание работодатели в портфолио студента? -На какие-то серьезные достижения! На разработанные веб-сайты, в моем случае, приложения.. -Где лучше всего студенту хранить своё портфолио? -Во-первых хранить, я думаю нужно как в электронном виде, так, по возможности и не в электронном. Если же в электронном, то неплохо было бы их загружать на какой-то специальный сайт.... -Отлично! А Вы уже начали собирать портфолио? -К сожалению, нет, мне пока что нечего класть в портфолио... Но я планирую.. Только не знаю, как это все организовать, структурировать.. -Хотели бы Вы оставить цифровой след? В каком формате? -Да, хотел бы... В электронном, желательно на удобной платформе.. -На этом все.. Спасибо за интервью! -Не за что! До свидания! -До свидания!"
"","","","","",""
"Главные моменты, которые обсуждали, прописаны.    10"
"В качестве площадки будет выступать сайт ОмГТУ, заходя на который студенты будут оставлять сведения о своих работах в  своем личном кабинете."
"","","","","",""
"","","","","",""
"2.  Будет реализовано разделение на Лабораторные работы/ /Проекты/Курсы/Личные достижения/Другое."
"","","","","",""
"Возможность оставлять комментарии к чужим работам"
"2.  Будет реализовано разделение на Лабораторные работы/ /Проекты/Курсы/Личные достижения/Другое."
"","","","","",""
"Портфолио делится на блоки (Проекты/Курсы и сертификаты/Дз и т.д)"
"Эксперты: Финк А.А.   Пользователи: Рыбакова Екатерина Малицкий Александр Бушуев Максим Безденежных Павел"
"","","","","",""
"Бальная система и система уровней"
"3. Для преподавателей/работодателей будет реализовано разделение доступа к разным данным (например, работодателю не будет интресно смотреть на ваши выполненные дз :^))"
"5. При первом заходе на страницу ""Цифрового следа"" будут реализованы всплывающие окна-подсказки, показывающие как правильно работать с данной страницей."
"Возможностьзагрузки файлов/сканирование"
"","","","","",""
"3. Для преподавателей/работодателей будет реализовано разделение доступа к разным данным (например, работодателю не будет интресно смотреть на ваши выполненные дз :^))"
"Разделение типов пользователей"
"","","","","",""
"","","","","",""
"","","","","",""
"4. Студенту будет предоставленна возможность загрузки файлов и сканирования."
"Раздел личных данных"
"4. Студенту будет предоставленна возможность загрузки файлов и сканирования."
"","","","","",""
"Разделение доступа к работам"
"Работа личного кабинета"
"","","","","",""
"всплывающие окна-подсказки"
"5. При первом заходе на страницу ""Цифрового следа"" будут реализованы всплывающие окна-подсказки, показывающие как правильно работать с данной страницей."
"","","","","",""
"","","","","",""
"","","","","",""
"6.В разделах достижений и сертификатов будет реализована бальная система, которая будет хоть и немного, но мотивировать студента к самосовершенствованию!!)"
"","","","","",""
"","","","","",""
"","","","","",""
"6.В разделах достижений и сертификатов будет реализована бальная система, которая будет хоть и немного, но мотивировать студента к самосовершенствованию!!)"
"7.Система уровней будет в игровой форме взаимодействовать со студентом, поднимая его интерес к данной системе."
"","","","","",""
"","","","","",""
"Корректировка карты эмпатии, карты пути пользователя, POV/HMW, диаграммы Венна ""Устойчивые решения"", Product Evolution Canvas проведена."
"Корректировка карты эмпатии, карты пути пользователя, POV/HMW, диаграммы Венна ""Устойчивые решения"", Product Evolution Canvas проведена."
"","","","","",""
"Добавление новых пунктов приветствуется :^0"
"После оценки можете предложить свои доработки или предложить свое видение справа =>"
"7.Система уровней будет в игровой форме взаимодействовать со студентом, поднимая его интерес к данной системе."
"8.Авторизация будет возможна через ВК, google, телеграм."
"9.При регистрации пользователю будет дана возможность  настроить приватность"
"10.Работодатели смогут прикреплять вакансии, а  студенты к этим вакансиям свое портфолио"
