﻿"  2 СПРИНТ"
"  3 СПРИНТ"
"  1 СПРИНТ"
"Генерация идей"
"КАРТА ЭМПАТИИ     "
"Инфа по спринтам","https://miro.com/app/board/o9J_lwYu0NU=/"
"Интервью с экспертом"
"Интервью со стейкхолдерами"
"приложение для контроля за организацией групповой проектной деятельности"
"Гайд интервью"
"  Умеет:   - ответственно подходить к учёбе "
"  Любит: - когда его не заставляют учить лишние предметы - когда поощряют за успехи в учёбе"
"  Мечтает о: - чтобы его обучение было максимально эффективным и у него было достаточно свободного времени   "
"Университеты заинтересованы в привлечении к себе талантливых и сильных абитуриентов, а также в повышении эффективности образования путём повышения гибкости образовательной программы"
"ПРОТОТИП 1.0"
"Карта Стейкхолдеров"
"студенты видят подробную статистику касательно своей успеваемости"
"трело","https://trello.com/b/P1JNTBMp/%D0%B8%D0%BD%D0%B4%D0%B8%D0%B2%D0%B8%D0%B4%D1%83%D0%B0%D0%BB%D1%8C%D0%BD%D0%B0%D1%8F-%D0%BE%D0%B1%D1%80%D0%B0%D0%B7%D0%BE%D0%B2%D0%B0%D1%82%D0%B5%D0%BB%D1%8C%D0%BD%D0%B0%D1%8F-%D1%82%D1%80%D0%B0%D0%B5%D0%BA%D1%82%D0%BE%D1%80%D0%B8%D1%8F-%D1%81%D1%82%D1%83%D0%B4%D0%B5%D0%BD%D1%82%D0%B0"
"студент может выбрать дисциплины не более чем из 3-4 тематических блоков, и по каждому блоку должен набрать некоторое число баллов для аттестации (чтобы исключить необоснованный выбор не связанных предметов)"
"Я хотел бы выбирать свою учебную программу"
"преподаватель видит свои группы, ему доступен инструмент обратной связи со студентами (отсылка файлов, сообщений)"
"преподаватель может выставлять отметки студентам"
"Насколько актуальна данная проблема? Проблема организации индивидуальной студенческой траектории достаточно актуальна в наше время, т.к. затрагивает сразу всю систему образования. Какие проблемы и сложности возникают на почве данной проблемы? Главным в процессе этой организации является сам студент — он должен иметь возможность самостоятельно выстроить свою траекторию такой, чтобы она была максимально эффективной конкретно для него, но не выходящей за рамки, задаваемые преподавателями, которые грамотно направляют студента, чтобы он не ошибся на начале своего пути. Вытекающая проблема — студент с высокой вероятностью может принять неправильное решение, особенно если это студент 1-2 курса, ведь в этот период далеко не каждый понимает и знает, чего он хочет. Ещё одна вытекающая проблема — регламентированный учебный план достаточно интенсивный (особенно у 1-2 курса), возможность как-то корректировать процесс изучения профильных/основных предметов сводится к нулю (т.е. в основном изучаемые дисциплины не предполагают права выбора у студента, что учить, а что нет — работать надо в полной мере и над всем), а при введении доп. занятий или попытках уделять время конкретно тому, что интересно, возникает нехватка свободного времени, что может как следствие негативно сказаться на общей успеваемости студента. Что эксперт добавил от себя? Предложение (идея) — обучение методом проектной деятельности."
"“Мы, как студенты, хотим уметь эффективно выстраивать индивидуальную траекторию”. Я, как студент, испытываю трудности с регламентированным учебным планом. Стараясь преуспеть сразу везде и во всём, как от меня и требуют, я заметил, что у меня стало значительно меньше свободного времени. Я беспокоюсь, что я рано или поздно не буду успешно справляться с объемом того материала, который является обязательным к изучению. Ощущаете ли вы, что изучаете что-то “лишнее”? Да, меня посещают такие мысли. Некоторые вещи для меня интереснее других, и я предпочел бы заниматься конкретно ими, но беспокоюсь, что не до конца разобрался в цельной картине и важности других вещей — меня волнует то, что я могу ошибиться в своем выборе, ведь что-то, что я упущу на этом этапе, может серьезно повлиять на мое будущее, а значит мне нужна помощь кого-то гораздо опытнее в этой сфере, чем я. Если бы у меня была альтернатива, я мог бы частично самостоятельно углубляться в конкретную тему и тогда, вероятнее всего, у меня появились бы свободные часы, которые можно было бы использовать с пользой. Что студенты добавили от себя? Было бы полезно, если бы существовало что-то, что помогало бы организовывать мою учебную траекторию по конкретным дисциплинам, будучи при этом понятным, удобным и доступным."
"мобильное/кроссплатформенное приложение, позволяющее студенту, на основе его успеваемости получать своевременные советы по тому, как подтянуть успеваемость и заполнить пробелы в знаниях"
"Студент должен сам формировать свою образовательную траекторию, но делать это под контролем преподавателя"
"Экспертное интервью: этапы"
"Глубинное интервью: этапы"
"Экспертное интервью: вопросы и подсказки"
"Глубинное интервью: вопросы и подсказки"
"студент может выбрать набор дисциплин для посещения"
"л.к. с ролями и минимальным функционалом"
"ключевые роли - студент и преподаватель - определяют набор функций, доступных пользователю при работе с сайтом"
"Учебное заведение"
"1. Ключевые слова"
"1. Ключевые слова"
"1. Знакомство"
"1. Знакомство"
"подключены базы данных для хранения информации о пользователях"
"пд рабочая таблица","https://docs.google.com/spreadsheets/d/1VQSeLkpSlVirlHyaoqcmpMAaI2Q7fpS2ZwLTe9oG78E/edit#gid=1500364536"
"функция - агрегатор курсов, который будет анализировать и брать самые подходящие по соотношению цена/качество курсы с популярных платформ по типу курсеры или степика"
"преподаватель может публиковать задания, а студенты загружать отчёты к этим заданиям в электронном виде"
"исходя из выбранных студентами дисциплин формируется список групп студентов"
"приложение, имеющее алгоритм, генерирующий набор заданий по запросу пользователя и меняющий их частоту появления в зависимости как от ответов пользователя, так и от его успеваемости"
"расписание занятий"
"благодарим вас за посещение интервьюключевые моменты из нашего диалога мы будем фиксировать чтобы не упустить важные моментыесли не желаете отвечать на вопрос — можете пропустить егобеседа в неформальной обстановке"
"благодарим вас за то что выделили время, чтобы прийти сегодня и дать нам интервьюменя зовут ... (представить и других участников команды)ключевые моменты из нашего диалога мы будем фиксировать чтобы не упустить важные моментыесли не желаете отвечать на вопрос — можете пропустить его"
"благодарность за участиепредставить себя и командупоинтересоваться, как дела у респондентовцель интервью (получить мнение прямых стейкхолдеров (студентов) о проблеме)"
"благодарность за участиепредставить себя и командуцель интервью (получить экспертное мнение по проблеме)"
"Учебный план практически невозможно перестроить или изменить (за редкими исключениями)"
"дополнительные инструменты и сервисы для организации учебного процесса внутри групп"
"Студенты"
"Студенты хотят, чтобы в образовательном процессе больше учитывались их интересы и способности"
"Я испытываю некоторые трудности, мне нужна консультация или помощь опытного человека"
"Индивидуальная образовательная программа студента"
"  Боится:   - за своё будущее - за возможную неуспеваемость по учёбе"
"    Имя: добрый аноним Возраст: 18"
"  Не понимает: - как найти любимое дело - как правильно спланировать свою образовательную траекторию - матанализ"
"Отрасль"
"2. Введение"
"2. Вводные вопросы"
"2. К сути проблемы"
"2. Вопросы"
"Преподаватели"
"функция, позволяющая преподавателю объявить студентам о возможной альтернативе, а студентам в свою очередь ознакомиться со всем этим и найти ответы на свои вопросы"
"дополнение для браузера или сайта, имеющее необходимый функционал"
"задаём первые вопросы"
"задаём вопросы по теме"
"насколько актуальна для вас данная проблема?Сложно ли преподавателю согласовать свой план с требованиями студентов? Какие проблемы возникают на этой почве? Часто ли к вам обращаются студенты, заявляющие о своей неуспеваемости?что конкретно для вас понятие “индивидуальная образовательная траектория студента”?какие сложности могут возникнуть при её введении?"
"Испытываете ли вы проблемы, связанные со строго фиксированным учебным планом?Как вы относитесь к обязательному посещению факультативных занятий?Ощущаете ли вы, что изучаете что-то “лишнее”? Мешает ли изучению профильных предметов?Достаточно ли практики и лекций вы получаете по профильным предметам, испытываете ли вы необходимость дополнительных часов занятий с преподавателями?Хотели бы вы иметь индивидуальный план обучения, который бы основывался на ваших предпочтениях?В каком "
"Обучение методом проектной деятельности"
"студенты участвуют в групповых проектах с строгим распределением обязанностей исходя из своих способностей и предпочтений"
"MVP"
"Core product"
"Full-scale product"
"Отрасль заинтересована в получении высококвалифицированного специалиста, получавшего в учебных заведениях конкретные практические навыки, а не набор общих дисциплин, никак не помогающих ему в профессиональном плане"
"Я уже частично понимаю, что, возможно будет для меня полезно, а что ""лишнее"""
"ЭКСПЕРТ"
"Остро стоит вопрос о том, как внедрить индивидуальную образовательную траекторию, не повысив нагрузку на преподавателей, не усложнив для них контроль за организацией образовательного процесса и успеваемостью студентов"
"Ценность для бизнеса"
"  Не успевает:   - в успешном освоении учебного материала "
"  Уверен в том, что:  - текущая образовательная система ему не совсем подходит"
"КАНЕВА О.Н."
"УЧАСТНИКИ ГЛУБИННОГО ИНТЕРВЬЮ"
"набор разных учебных групп по каждой дисциплине"
"отсутствие фиксированных учебного плана и групп как таковых"
"Экспертное интервью: этапы"
"Экспертное интервью: вопросы и подсказки"
"студенты сами выбирают, какие предметы будут посещать в текущем семестре"
"3. Основные вопросы"
"3. Основная часть"
"Карта пути пользователя/Customer Journey Map"
"Глубинное интервью: этапы"
"Глубинное интервью: вопросы и подсказки"
"задаём вопросы, конкретно относящиеся к проблеме"
"Переход студентов к этой системе и помощь каждому студенту при необходимости или особый подход к каждому студенту со стороны преподавателей (отстающие студенты, студенты на грани отставания, успевающие и преуспевающие)?Какие проблемы возникают у вуза, когда студенты испытывают необходимость в доп. часах?Какие функции вы бы хотели видеть в реализации нашего проекта (на этапах решения проблемы)"
"3. Ключевые слова"
"3. Завершение"
"Текущая задача проекта"
"позитивно закончитьещё раз поблагодарить за участие"
"хотите что-то добавить или дополнить?"
"Я успешно определился с тем, чем я хочу заниматься. Я уверен в правильности своего выбора, ведь на всём пути меня поддерживали и направляли в нужную сторону, уберегая от ошибок. Я готов развивать в выбранном направлении дальше."
"мобильное/кроссплатформенное приложение, позволяющее студенту, на основе его успеваемости получать своевременные советы по тому, как подтянуть успеваемость и заполнить пробелы в знаниях"
"😄   😌   😐   😕   😟"
"САВИН  А. Ю. (МО-211)"
"POV/HMW"
"САФРОНОВ  А. А. (МО-211)"
"удобный и понятный интерфейс"
"'- набор методик, направленных на реализацию индивидуальных образовательных программ в стенах учебного заведения'"
"приложение для контроля за организацией групповой проектной деятельности"
"дополнение для браузера или сайта, имеющее необходимый функционал"
"БОЖКО  Д. К. (МО-211)"
"Возможность технологий"
"функция - агрегатор курсов, который будет анализировать и брать самые подходящие по соотношению цена/качество курсы с популярных платформ по типу курсеры или степика"
"цифровая платформа для упрощения организации учебного процесса"
"4. Ключевые слова"
"Разработать подход, помогающий преподавателям и студентам качественно организовать их индивидуальную учебную траекторию"
"студенты участвуют в групповых проектах с строгим распределением обязанностей исходя из своих способностей и предпочтений"
"4. Завершение"
"позитивно закончитьпоблагодаритьрассказать о дальнейших действиях команды"
"хотите ли вы что-то добавить? пожелания, корректировки, есть ли у вас к нам вопросы?благодарим вас... и т. д."
"Как мы можем"
"Помочь студентам построить свою образовательную траекторию и организовать для них образовательный процесс?"
"Я нашел для себя ресурс, который, как мне кажется, мог бы помочь мне в решении моей проблемы"
"1. Определите основного пользователя, для которого вы создаете свой продукт или образ персоны («композитный пользователь»). Например, Вася — молодой предприниматель.   2. Синтезируйте наиболее существенные для реализации потребности ваших пользователей. Помните, что потребность выражается глаголом. Вася хочет сделать подарок другу и не тратить на это много времени.   3. Сформулируйте основной инсайт, который будет отвечать на вопрос: «Потому что / Каким образом?» Васе нужно быстро сделать подарок другу на день рождения, потому что он очень занятой человек и при этом ценит своих друзей.   4. Переходите к вопросу: «Как мы могли бы помочь» или HMW (How Might We). Как мы могли бы помочь Васе сделать подарок другу в один клик?"
"студенты сами выбирают, какие предметы будут посещать в текущем семестре"
"'- как реализовать гибкий учебный план посредством цифровых решений (личный кабинет студента?)'"
"Полезность для человека"
"Я постарался самостоятельно разобраться в предоставленной мне альтернативе, но не уверен что в силу своего опыта могу принять такое важное решение сам, боюсь появления трудностей в учебе вследствие неправильного выбора"
"Что сделать? Для кого?"
"Я решаю интересующие меня вопросы, получаю наставления и удачно выстраиваю свою учебную траекторию. Адаптационный период дается мне не без сложностей, но когда он заканчивается, я чувствую удовлетворение"
"Студент хочет учиться по предпочитаемой гибкой образовательной программе"
"Я изучаю так много всего, что усваивать такой объем материала мне уже нелегко; я предполагаю, что не всё, что я изучаю, для меня так полезно (считаю, что мог бы углубиться в какую-то одну тему)"
"'- внедрение в образовательный процесс проектных командных работ с целью повышения самостоятельности студентов?'"
"на следующий спринт"
"посредством интервью выявить ключевые проблемы и пути их решения"
"Потребность, выраженная глаголом"
"Потому что считает, что текущая система образования для него и других неэффективна и имеет недостатки"
"Шаги"
"Столкновение с трудностями и осознание проблемы"
"Оперативный поиск решения проблемы, поиск ответов на вопросы"
"Первая встреча с нашим продуктом на просторах сети"
"Процесс адаптации. Процесс решение пролшем"
"Извлечение пользы, развитие в верном направлении"
"Действия"
"Каким образом/потому что"
"1. Вася - молодой студент   2. Вася хочет учиться по предпочитаемой образовательной программе   3. Вася хочет это, потому что считает, что текущая система образования для него и других неэффективна и имеет недостатки   4. Как мы можем помочь Васе построить свою образовательную траекторию и организовать для таких Вась образовательный процесс?"
"  4 СПРИНТ"
"текущая задача"
"  финалочка наконец-то"
"Итоги экспертного интервью (основные тезисы и идеи)"
"понять, как завернуть основные идеи в IT продукт, чтобы он действительно решал поставленную проблему"
"можно ли объединить эти идеи? как реализовать их в виде IT продукта?"
"нужна версия 2.1"
"Карта эмпатии, карта стейкхолдеров, POV, JM не подверглась изменениям (они изначально сформулированы верно, необходимость в корректировке не появилось), переделали canvas и круги, т.к. именно техническое решение пришлось сильно изменить"
"Ценность для бизнеса"
"ПРОТОТИП 2.0 (FIGMA)"
"Набросок презентации"
"позволяет участникам распределять свои обязанности по проекту"
"идея 2"
"идея 1"
"внедрение дисциплин по выбору (1/4 от общего объема дисциплин)"
"внедрение работы по командам"
"распределение группы по углублённым профилям на старших курсах?"
"трудности"
"мобильное/кроссплатформенное приложение, позволяющее студенту, на основе его успеваемости получать своевременные советы по тому, как подтянуть успеваемость и заполнить пробелы в знаниях"
"студенты более самостоятельны и ответственнее подходят к учёбе"
"студенты участвуют в групповых проектах с строгим распределением обязанностей исходя из своих способностей и предпочтений"
"предыдущее решение не сработает/не доведено до ума"
"удобный и понятный интерфейс"
"приложение для контроля за организацией групповой проектной деятельности"
"дополнение для браузера или сайта, имеющее необходимый функционал"
"Сделать: проиллюстрировать решения, прототипыдобавить картинок, оформлениядоклад"
"цифровая платформа для упрощения организации учебного процесса"
"функция - агрегатор курсов, который будет анализировать и брать самые подходящие по соотношению цена/качество курсы с популярных платформ по типу курсеры или степика"
"студенты распределяются по профилям на старших курсах"
"Возможность технологий"
"проблемы:"
"как минимум необходима некая дорожная карта, способная направить студента"
"студенты сами выбирают, какие предметы будут посещать в текущем семестре"
"дать студенту просто выбрать предметы — плохая идея"
"действительно получают нужные компетенции"
"Полезность для человека"
"что сделать"
"наброски ключевых фраз для доклада"
"провести больше интервью посмотреть на опыт других университетов"
"нынешняя сис-ма образования уже устаревшая, не успевает за быстро меняющимся миром"
"весь образовательный процесс очень строго регламентирован, внедрить индивидуальный план для каждого студента очень сложно"
"Создание прототипа:    -сформулировать решение как IT продукт   -определить основной, необходимый функционал   -разработка интерфейсной части, разбиение сайта на 3 структурных блока: основное меню (верхнее), подменю (боковое), контентная (функциональная) часть   -реализация при помощи figma   "
"образовательная организация должна следовать ФГОС"
"многие студенты не знают, чего хотят, поэтому хорошо иметь возможность без серьёзных последствий пробовать себя в разных направлениях, дисциплинах и т. д."
"доступ к ресурсу имеют только студенты необходимых курсов (направлений)"
"Full-scale product может представлять собой полноценный личный кабинет (студенческий портал)"
"хранится минимальная информация о студенте (ФИО, курс, направление)"
"возможность загрузки документа на сервер"
"наличие роли ""проверяющего"", имеющего доступ к базе"
"описание работы с инструментами д-м, анализа проблемы и пути к конечному решению"
"расписание профильных занятий (?)"
"отображение реализуемых на направлении профилей с минимальными пояснениями к ним"
"подключены базы данных для хранения документов"
"Далее: первое решение: краткое его описание, преимущества и недостатки, почему оказалось неудачным;немного опыт других учебных заведений (спбгу liberal arts)переход ко второму решению: почему оно далеко от идеала, и почему сложно полноценно реализовать индивидуальную образовательную траекториюподробно про второе решение"
"предполагало сильное отклонение от установленных гос. образовательных стандартов"
"MVP"
"Core product"
"Full-scale product"
"у спбгу есть свой образовательный стандарт"
"учесть интересы каждого невозможно"
