{
  "name": "Frontend Разработчик (Angular)",
  "children": [
    {
      "name": "Знать",
      "children": [
        {
          "name": "Элементы web-разработки",
          "children": [
            {
              "name": "приложение",
              "weight": 0.1762
            },
            {
              "name": "javascript",
              "weight": 0.052
            },
            {
              "name": "typescript",
              "weight": 0.0495
            },
            {
              "name": "тестирование",
              "weight": 0.0438
            },
            {
              "name": "пакет",
              "weight": 0.0438
            }
          ]
        },
        {
          "name": "Язык программирования TypeScript",
          "children": [
            {
              "name": "метод",
              "weight": 0.1146
            },
            {
              "name": "значение",
              "weight": 0.0893
            },
            {
              "name": "событие",
              "weight": 0.0656
            },
            {
              "name": "привязка",
              "weight": 0.051
            },
            {
              "name": "возвращать",
              "weight": 0.0272
            },
            {
              "name": "массив",
              "weight": 0.0255
            }
          ]
        },
        {
          "name": "ООП",
          "children": [
            {
              "name": "компонент",
              "weight": 0.222
            },
            {
              "name": "класс",
              "weight": 0.1217
            },
            {
              "name": "служба",
              "weight": 0.0832
            },
            {
              "name": "тип",
              "weight": 0.078
            },
            {
              "name": "определение",
              "weight": 0.0359
            },
            {
              "name": "экземпляр",
              "weight": 0.0284
            },
            {
              "name": "декоратор",
              "weight": 0.0279
            },
            {
              "name": "внедрение",
              "weight": 0.0247
            },
            {
              "name": "конструктор",
              "weight": 0.0151
            }
          ]
        },
        {
          "name": "Директивы в Angular",
          "children": [
            {
              "name": "ngmodel",
              "weight": 0.0377
            },
            {
              "name": "ngswitch",
              "weight": 0.0331
            },
            {
              "name": "ngfor",
              "weight": 0.033
            },
            {
              "name": "директива",
              "weight": 0.0266
            },
            {
              "name": "ngswitchcase",
              "weight": 0.0198
            },
            {
              "name": "ngswitchdefault",
              "weight": 0.018
            },
            {
              "name": "ngform",
              "weight": 0.0177
            },
            {
              "name": "ngif",
              "weight": 0.0173
            }
          ]
        },
        {
          "name": "Основы разработки BackEnd",
          "children": [
            {
              "name": "база",
              "weight": 0.0347
            },
            {
              "name": "клиент",
              "weight": 0.0287
            },
            {
              "name": "клиент",
              "weight": 0.0276
            },
            {
              "name": "ввод",
              "weight": 0.0242
            },
            {
              "name": "реляционный",
              "weight": 0.021
            },

            {
              "name": "протокол",
              "weight": 0.0178
            }
          ]
        }
      ]
    },
    {
      "name": "Уметь",
      "children": [
        {
          "name": "Маршрутизация",
          "children": [
            {
              "name": "маршрут",
              "weight": 0.0599
            },
            {
              "name": "url",
              "weight": 0.0512
            },
            {
              "name": "запрос",
              "weight": 0.0496
            },
            {
              "name": "http",
              "weight": 0.0477
            },
            {
              "name": "routerlink",
              "weight": 0.0452
            },
            {
              "name": "адрес",
              "weight": 0.0396
            }
          ]
        },
        {
          "name": "Визуализация данных",
          "children": [
            {
              "name": "элемент",
              "weight": 0.1214
            },
            {
              "name": "директива",
              "weight": 0.0875
            },
            {
              "name": "шаблон",
              "weight": 0.0659
            },
            {
              "name": "стиль",
              "weight": 0.0204
            },
            {
              "name": "анимация",
              "weight": 0.0181
            },
            {
              "name": "css",
              "weight": 0.0149
            },
            {
              "name": "dom",
              "weight": 0.0144
            }
          ]
        },
        {
          "name": "Сборка приложения",
          "children": [
            {
              "name": "файл",
              "weight": 0.0184
            },
            {
              "name": "package",
              "weight": 0.0182
            },
            {
              "name": "папка",
              "weight": 0.017
            },
            {
              "name": "aot",
              "weight": 0.132
            },
            {
              "name": "конфигурация",
              "weight": 0.0112
            }
          ]
        },
        {
          "name": "Чтение документации на английском языке",
          "children": []
        }
      ]
    },
    {
      "name": "Владеть",
      "children": [
        {
          "name": "Работа в команде",
          "children": [
            {
              "name": "agile",
              "weight": 0.005
            },
            {
              "name": "скрам",
              "weight": 0.003
            },
            {
              "name": "компания"
            },
            {
              "name": "проект"
            },
            {
              "name": "продуктовый"
            }
          ]
        },
        {
          "name": "Системное мышление",
          "children": [
  		{
              "name": "решение",
              "weight": 0.1435
            	}
        ]
        },
        {
          "name": "Система контроля версий Git",
          "children": [
            {
              "name": "git",
              "weight": 0.1435
            },
            {
              "name": "ветка",
              "weight": 0.0444
            },
            {
              "name": "master",
              "weight": 0.0287
            },
            {
              "name": "commit",
              "weight": 0.0166
            },
            {
              "name": "head",
              "weight": 0.0132
            },
            {
              "name": "origin",
              "weight": 0.013
            }
          ]
        }
      ]
    }
  ]
}
