{
  "name": "DevOps инженер",
  "children": [
    {
      "name": "Знать",
      "children": [
        {
          "name": "Контейнеризация",
          "children": [
            {
              "name": "Docker",
              "weight": 0.1762
            },
            {
              "name": "Kubernetes",
              "weight": 0.052
            },
            {
              "name": "Yaml",
              "weight": 0.0495
            },
            {
              "name": "GO",
              "weight": 0.0438
            }
          ]
        },
        {
          "name": "Язык программирования Batch",
          "children": [
            {
              "name": "Linux",
              "weight": 0.1146
            },
            {
              "name": "сценарии",
              "weight": 0.0893
            },
            {
              "name": "сеть",
              "weight": 0.0656
            },
            {
              "name": "автоматизация",
              "weight": 0.051
            }
          ]
        },
        {
          "name": "Виртуализация",
          "children": [
            {
              "name": "Linux",
              "weight": 0.0377
            },
            {
              "name": "хост",
              "weight": 0.0331
            },
            {
              "name": "Windows",
              "weight": 0.033
            },
            {
              "name": "Ядро",
              "weight": 0.0266
            },
            {
              "name": "представление",
              "weight": 0.0198
            }
          ]
        }
      ]
    },
    {
      "name": "Уметь",
      "children": [
        {
          "name": "Маршрутизация",
          "children": [
            {
              "name": "маршрут",
              "weight": 0.0599
            },
            {
              "name": "url",
              "weight": 0.0512
            },
            {
              "name": "запрос",
              "weight": 0.0496
            },
            {
              "name": "http",
              "weight": 0.0477
            },
            {
              "name": "routerlink",
              "weight": 0.0452
            },
            {
              "name": "адрес",
              "weight": 0.0396
            }
          ]
        },
        {
          "name": "Администрирование",
          "children": [
            {
              "name": "контейнер",
              "weight": 0.1214
            },
            {
              "name": "сеть",
              "weight": 0.0875
            },
            {
              "name": "образ",
              "weight": 0.0659
            },
            {
              "name": "сценарий",
              "weight": 0.0204
            }
          ]
        },
        {
          "name": "Сборка приложения",
          "children": [
            {
              "name": "jenkins",
              "weight": 0.0184
            },
            {
              "name": "CI/CD",
              "weight": 0.0182
            },
            {
              "name": "gitlab",
              "weight": 0.017
            }
              ]
            },
            {
              "name": "Чтение документации на английском языке",
              "children": []
            }
          ]
        },
        {
          "name": "Владеть",
          "children": [
            {
              "name": "Работа в команде",
              "children": [
                {
                  "name": "agile",
                  "weight": 0.005
                },
                {
                  "name": "скрам",
                  "weight": 0.003
                },
                {
                  "name": "компания"
                },
                {
                  "name": "проект"
                },
                {
                  "name": "продуктовый"
                }
              ]
            },
            {
              "name": "Системное мышление",
              "children": []
            },
            {
              "name": "Система контроля версий Git",
              "children": [
                {
                  "name": "git",
                  "weight": 0.1435
                },
                {
                  "name": "ветка",
                  "weight": 0.0444
                },
                {
                  "name": "master",
                  "weight": 0.0287
                },
                {
                  "name": "commit",
                  "weight": 0.0166
                },
                {
                  "name": "head",
                  "weight": 0.0132
                },
                {
                  "name": "origin",
                  "weight": 0.013
                }
              ]
            }
          ]
        }
      ]
    }
